<svg width="19" height="19" viewBox="0 0 19 19" fill="none" xmlns="http://www.w3.org/2000/svg">
<path fill-rule="evenodd" clip-rule="evenodd" d="M17.1789 14.9051C17.1789 15.1544 16.9764 15.3568 16.7269 15.3568H0.452078C0.202531 15.3568 0 15.1544 0 14.9051V0.45167C0 0.202348 0.202531 0 0.452078 0H16.7269C16.9764 0 17.1789 0.202348 17.1789 0.45167V14.9051V14.9051Z" transform="translate(1 2.8067)" stroke="white" stroke-width="1.6" stroke-linecap="round"/>
<path d="M0 0H16.2748" transform="translate(1.45117 6)" stroke="white" stroke-width="1.6" stroke-linecap="round"/>
<path d="M0 0V3.61336" transform="translate(5 1)" stroke="white" stroke-width="1.6" stroke-linecap="round"/>
<path d="M0 3.61336V0" transform="translate(13 1)" stroke="white" stroke-width="1.6" stroke-linecap="round"/>
<path d="M0 2.01851L2.4376 4.5167L7.23324 0" transform="translate(6.11133 10.2183)" stroke="white" stroke-width="1.6" stroke-linecap="round" stroke-linejoin="round"/>
</svg>
