<svg width="22" height="22" viewBox="0 0 22 22" fill="none" xmlns="http://www.w3.org/2000/svg">
<path fill-rule="evenodd" clip-rule="evenodd" d="M21 20.4736C21 20.7642 20.7642 21 20.4737 21H1.52632C1.23579 21 1 20.7642 1 20.4736V3.63154C1 3.34101 1.23579 3.10522 1.52632 3.10522H20.4737C20.7642 3.10522 21 3.34101 21 3.63154V20.4736V20.4736Z" stroke="#43484D" stroke-width="2" stroke-linecap="round"/>
<path d="M1.52637 7.66663H20.4737" stroke="#43484D" stroke-width="2" stroke-linecap="round"/>
<path d="M5.16663 1V5.21053" stroke="#43484D" stroke-width="2" stroke-linecap="round"/>
<path d="M16 5.21053V1" stroke="#43484D" stroke-width="2" stroke-linecap="round"/>
<path d="M6.94995 14.0939L9.78785 17.005L15.371 11.7418" stroke="#43484D" stroke-width="2" stroke-linecap="round" stroke-linejoin="round"/>
</svg>
