<svg width="23" height="18" viewBox="0 0 23 18" fill="none" xmlns="http://www.w3.org/2000/svg">
<path fill-rule="evenodd" clip-rule="evenodd" d="M19.7046 15.6748H0.395512C0.103338 15.6748 0.00655512 15.2026 0.00655512 14.9068V0.337479C0.00655512 0.214619 -0.0235753 0.101422 0.0453595 0.0107724C0.0709247 -0.0232788 0.0649899 0.0613889 0.0974029 0.0347002C0.188707 -0.0403043 0.269512 0.0296385 0.395512 0.0296385H19.7046C19.9972 0.0296385 20.0935 0.0416025 20.0935 0.337479V14.9068C20.0935 15.2026 19.9972 15.6748 19.7046 15.6748V15.6748Z" transform="translate(1.4502 1.43051)" stroke="white" stroke-width="1.6"/>
<path d="M0 0L7.91517 7.80875C9.15691 8.98858 11.14 8.98029 12.3708 7.79035L20.186 0.0542977" transform="translate(1.42383 1.4411)" stroke="white" stroke-width="1.6"/>
<path d="M6.43011 8.7493L0 0" transform="translate(15.1797 7.86038)" stroke="white" stroke-width="1.6"/>
<path d="M0 8.7493L6.56341 0" transform="translate(1.38965 7.86038)" stroke="white" stroke-width="1.6"/>
</svg>
