<svg width="37" height="27" viewBox="0 0 37 27" fill="none" xmlns="http://www.w3.org/2000/svg">
<path fill-rule="evenodd" clip-rule="evenodd" d="M18.2479 18.8064C15.4178 18.8064 13.1155 16.5189 13.1155 13.7064C13.1155 10.8939 15.4178 8.60645 18.2479 8.60645C21.078 8.60645 23.3803 10.8939 23.3803 13.7064C23.3803 16.5189 21.078 18.8064 18.2479 18.8064ZM18.2478 6.35645C14.1688 6.35645 10.8501 9.65645 10.8501 13.7064C10.8501 17.7564 14.1688 21.0564 18.2478 21.0564C22.3269 21.0564 25.6456 17.7564 25.6456 13.7064C25.6456 9.65645 22.3269 6.35645 18.2478 6.35645ZM33.8347 23.014C33.8559 23.5015 33.7781 23.8765 33.6263 24.0115C33.4942 24.1315 33.2284 24.1165 33.1861 24.109C33.1151 24.094 33.0554 24.0565 32.9694 24.094C32.6862 24.094 4.64247 24.1465 2.85967 24.094C2.59538 24.0865 2.51685 23.9965 2.48741 23.9665C2.31902 23.7865 2.25559 23.374 2.26767 23.0815V8.72647C2.26767 8.08147 2.41869 7.60897 2.71696 7.32397C3.10357 6.95647 3.68802 6.94147 3.80355 6.94147C3.81563 6.94147 3.82318 6.94147 3.82394 6.94147C3.85112 6.94147 3.87906 6.94147 3.90624 6.94147H9.06434C9.42226 6.94147 9.75828 6.77647 9.97273 6.49147C9.98708 6.46897 11.4535 4.51897 12.6866 2.98147C13.2295 2.30647 13.4387 2.27647 13.823 2.27647C14.042 2.27647 14.6091 2.26897 15.3551 2.26897C17.5396 2.25397 21.1943 2.23897 22.2205 2.26147C22.993 2.27647 23.2995 2.62897 23.6544 3.04147L23.7692 3.16897C23.9383 3.36397 25.4908 5.32147 26.4294 6.51397C26.6446 6.78397 26.9731 6.94147 27.3212 6.94147H32.1735C33.399 6.94147 33.7524 7.96897 33.837 8.32147C33.8241 9.66397 33.726 20.479 33.8347 23.014ZM36.1038 8.22397C36.1045 8.15647 36.0985 8.08897 36.0879 8.02897C35.8931 6.87397 34.8246 4.69147 32.1735 4.69147H27.8724C27.0864 3.70147 25.6494 1.88647 25.4659 1.67647L25.3708 1.57147C24.9086 1.03897 24.0501 0.0489737 22.2673 0.0114737C21.2132 -0.0110263 17.5396 0.00397367 15.3438 0.0189737C14.603 0.0189737 14.0405 0.0264737 13.823 0.0264737C12.4442 0.0264737 11.6634 0.648974 10.9151 1.57897C10.0226 2.68897 9.01299 4.01647 8.49801 4.69147H3.93719C3.6193 4.68397 2.25181 4.68397 1.18485 5.66647C0.400296 6.39397 0.00235762 7.42147 0.00235762 8.72647L0.00462293 23.014C-0.0051934 23.164 -0.0663567 24.5215 0.807296 25.474C1.30113 26.014 1.98601 26.314 2.78793 26.344C3.41164 26.359 7.01348 26.3665 11.5267 26.3665C19.9688 26.3665 31.5996 26.344 32.8938 26.344C33.2684 26.389 34.2764 26.4265 35.101 25.7215C35.8161 25.1065 36.1514 24.1615 36.0977 22.924C35.9867 20.329 36.1023 8.34397 36.1038 8.22397Z" transform="translate(0.530762 0.0935059)" fill="#1A1919"/>
</svg>
