<svg width="34" height="30" viewBox="0 0 34 30" fill="none" xmlns="http://www.w3.org/2000/svg">
<g filter="url(#filter0_d)">
<path fill-rule="evenodd" clip-rule="evenodd" d="M0 0.821579C0 0.491053 0.349091 0 0.693273 0H6.65073C6.99709 0 7.09091 0.493684 7.09091 0.821579V12.0332C7.09091 12.3637 6.99545 12.6316 6.65073 12.6316H0.693273C0.346909 12.6316 0 12.3611 0 12.0332V0.821579V0.821579Z" transform="translate(5 8.36853)" stroke="white" stroke-width="2"/>
<path d="M0 0H6.74836C7.54745 0 8.25218 1.97579 8.09291 2.69947C8.09291 2.69947 6.16255 10.2295 5.69345 11.3995C5.22382 12.5695 3.65236 12.6316 3.31527 12.6316H2.18182" transform="translate(20.8182 7.3158)" stroke="white" stroke-width="2" stroke-linecap="round" stroke-linejoin="bevel"/>
<path d="M0 9.01063L1.236 8.53747L3.87055 4.02905C3.87055 4.02905 3.76636 1.63958 4.02873 0.920631C4.29164 0.20221 6.70691 -1.10779 8.12891 1.82853C9.55036 4.76432 8.12891 6.40537 8.12891 6.40537" transform="translate(12.6523 1)" stroke="white" stroke-width="2" stroke-linecap="round"/>
<path d="M4.43673 1.59947C3.19527 1.16158 0 0 0 0" transform="translate(12.4882 18.5467)" stroke="white" stroke-width="2" stroke-linecap="round" stroke-linejoin="bevel"/>
<path d="M0 0H7.09091" transform="translate(17 20)" stroke="white" stroke-width="2" stroke-linecap="round"/>
</g>
<defs>
<filter id="filter0_d" x="0" y="3.05176e-05" width="33.9337" height="30.0001" filterUnits="userSpaceOnUse" color-interpolation-filters="sRGB">
<feFlood flood-opacity="0" result="BackgroundImageFix"/>
<feColorMatrix in="SourceAlpha" type="matrix" values="0 0 0 0 0 0 0 0 0 0 0 0 0 0 0 0 0 0 255 0"/>
<feOffset dy="4"/>
<feGaussianBlur stdDeviation="2"/>
<feColorMatrix type="matrix" values="0 0 0 0 0 0 0 0 0 0 0 0 0 0 0 0 0 0 0.25 0"/>
<feBlend mode="normal" in2="BackgroundImageFix" result="effect1_dropShadow"/>
<feBlend mode="normal" in="SourceGraphic" in2="effect1_dropShadow" result="shape"/>
</filter>
</defs>
</svg>
