<svg width="13px" height="13px" viewBox="0 0 19 19" fill="none" xmlns="http://www.w3.org/2000/svg">
<rect width="18" height="18" fill="black" fill-opacity="0" transform="translate(1 1)"/>
<path fill-rule="evenodd" clip-rule="evenodd" d="M18.1789 17.7118C18.1789 17.9611 17.9764 18.1634 17.7269 18.1634H1.45208C1.20253 18.1634 1 17.9611 1 17.7118V3.25831C1 3.00899 1.20253 2.80664 1.45208 2.80664H17.7269C17.9764 2.80664 18.1789 3.00899 18.1789 3.25831V17.7118V17.7118Z" stroke="white" stroke-width="1.6" stroke-linecap="round"/>
<path d="M1.45215 6H17.7269" stroke="white" stroke-width="1.6" stroke-linecap="round"/>
<path d="M5 1V4.61336" stroke="white" stroke-width="1.6" stroke-linecap="round"/>
<path d="M13 4.61336V1" stroke="white" stroke-width="1.6" stroke-linecap="round"/>
<path d="M6.11035 12.2368L8.54795 14.735L13.3436 10.2183" stroke="white" stroke-width="1.6" stroke-linecap="round" stroke-linejoin="round"/>
</svg>