<svg width="14" height="14" viewBox="0 0 14 14" fill="none" xmlns="http://www.w3.org/2000/svg">
<path fill-rule="evenodd" clip-rule="evenodd" d="M0 9.91663C0 10.8832 0.783203 11.6666 1.75 11.6666L2.91797 11.6667H8.75L9.91602 11.6666C10.8828 11.6666 11.666 10.8832 11.666 9.91663V3.5C11.666 3.34534 11.6055 3.1969 11.4961 3.08752L8.58008 0.170898C8.4707 0.0614014 8.32227 0 8.16602 0H2.91797H1.75C0.783203 0 0 0.783447 0 1.75V9.91663ZM2.33398 1.16675V3.5C2.33398 3.82214 2.5957 4.08337 2.91797 4.08337H7.58398C7.90625 4.08337 8.16797 3.82214 8.16797 3.5C8.16797 3.17786 7.90625 2.91663 7.58398 2.91663H3.5V1.16675H7.92578L10.502 3.7417V9.91675C10.502 10.2389 10.2402 10.5001 9.91797 10.5001H9.33398V6.41675C9.33398 6.09448 9.07227 5.83337 8.75 5.83337H2.91797C2.5957 5.83337 2.33398 6.09448 2.33398 6.41675V10.5001H1.75195C1.42969 10.5001 1.16797 10.2389 1.16797 9.91675V1.75012C1.16797 1.42786 1.42969 1.16675 1.75195 1.16675H2.33398ZM8.16797 10.5001H3.5V7H8.16797V10.5001Z" transform="translate(1.16602 1.16663)" fill="black"/>
<mask id="mask0" mask-type="alpha" maskUnits="userSpaceOnUse" x="1" y="1" width="12" height="12">
<path fill-rule="evenodd" clip-rule="evenodd" d="M0 9.91663C0 10.8832 0.783203 11.6666 1.75 11.6666L2.91797 11.6667H8.75L9.91602 11.6666C10.8828 11.6666 11.666 10.8832 11.666 9.91663V3.5C11.666 3.34534 11.6055 3.1969 11.4961 3.08752L8.58008 0.170898C8.4707 0.0614014 8.32227 0 8.16602 0H2.91797H1.75C0.783203 0 0 0.783447 0 1.75V9.91663ZM2.33398 1.16675V3.5C2.33398 3.82214 2.5957 4.08337 2.91797 4.08337H7.58398C7.90625 4.08337 8.16797 3.82214 8.16797 3.5C8.16797 3.17786 7.90625 2.91663 7.58398 2.91663H3.5V1.16675H7.92578L10.502 3.7417V9.91675C10.502 10.2389 10.2402 10.5001 9.91797 10.5001H9.33398V6.41675C9.33398 6.09448 9.07227 5.83337 8.75 5.83337H2.91797C2.5957 5.83337 2.33398 6.09448 2.33398 6.41675V10.5001H1.75195C1.42969 10.5001 1.16797 10.2389 1.16797 9.91675V1.75012C1.16797 1.42786 1.42969 1.16675 1.75195 1.16675H2.33398ZM8.16797 10.5001H3.5V7H8.16797V10.5001Z" transform="translate(1.16602 1.16663)" fill="white"/>
</mask>
<g mask="url(#mask0)">
<rect width="14" height="14" fill="white"/>
</g>
</svg>
