<svg width="30" height="28" viewBox="0 0 30 28" fill="none" xmlns="http://www.w3.org/2000/svg">
<path fill-rule="evenodd" clip-rule="evenodd" d="M15.2205 0H15.2192C15.1934 0 15.1692 0 15.1461 0.000308704C14.9622 0.00216093 14.6599 0.00509362 14.6327 0.00540232C13.9697 0.00540232 12.6431 0.0987853 11.2182 0.725918C10.4035 1.08425 9.67062 1.56876 9.04011 2.16602C8.2884 2.87766 7.676 3.75508 7.22026 4.77426C6.55283 6.26654 6.71127 8.78008 6.83852 10.8L6.83898 10.8032C6.85261 11.0195 6.86693 11.2454 6.88001 11.4655C6.78209 11.5103 6.62335 11.5576 6.38936 11.5576C6.01288 11.5576 5.5652 11.4376 5.05907 11.2012C4.91015 11.132 4.74018 11.0971 4.55264 11.0971C4.25132 11.0971 3.93366 11.1855 3.65812 11.347C3.31144 11.55 3.08744 11.8369 3.0266 12.1549C2.98651 12.3653 2.98844 12.7811 3.45169 13.2028C3.70649 13.435 4.0808 13.649 4.56394 13.8394C4.69072 13.8892 4.84119 13.9368 5.00056 13.9872C5.55359 14.1624 6.3906 14.4272 6.60887 14.9394C6.71948 15.1991 6.67188 15.5409 6.46777 15.9539C6.46243 15.9652 6.45709 15.9762 6.45221 15.9878C6.40121 16.1066 5.92534 17.1813 4.94924 18.3148C4.39459 18.9594 3.78366 19.4981 3.13442 19.9164C2.34199 20.427 1.48454 20.7609 0.586149 20.9084C0.233356 20.9662 -0.0185843 21.2796 0.00107555 21.6358C0.00711282 21.7384 0.0312619 21.8407 0.0731358 21.9398C0.0734454 21.9404 0.0738324 21.941 0.074142 21.9415C0.216792 22.2742 0.547526 22.5569 1.08523 22.8061C1.74229 23.1104 2.72497 23.3664 4.00572 23.5667C4.07043 23.6894 4.13761 23.9978 4.18413 24.209C4.23282 24.4334 4.28359 24.6641 4.35596 24.9093C4.43406 25.1748 4.63662 25.4922 5.15698 25.4922C5.3542 25.4922 5.58099 25.4479 5.84361 25.3971C6.22821 25.3218 6.75415 25.2192 7.41059 25.2192C7.77453 25.2192 8.1517 25.2511 8.53136 25.314C9.26318 25.4355 9.89408 25.8799 10.624 26.3945C11.6925 27.1476 12.9019 28 14.7497 28C14.8001 28 14.8506 27.9984 14.9005 27.9949C14.9616 27.9978 15.0373 28 15.1172 28C16.9655 28 18.1746 27.1473 19.2419 26.3948L19.2436 26.3933C19.9737 25.8793 20.6039 25.4355 21.3355 25.314C21.715 25.2512 22.0921 25.2192 22.4562 25.2192C23.0833 25.2192 23.5798 25.2989 24.0232 25.3851C24.3125 25.4419 24.5373 25.4692 24.7099 25.4692L24.7267 25.4696H24.7442C25.1248 25.4696 25.4045 25.2613 25.5112 24.8968C25.5821 24.6568 25.6327 24.4315 25.6826 24.2032C25.7261 24.0054 25.7956 23.6882 25.8603 23.5642C27.142 23.3635 28.1242 23.108 28.7814 22.8038C29.3178 22.5557 29.6482 22.2734 29.7917 21.9421C29.8347 21.8427 29.8599 21.7398 29.8655 21.635C29.8857 21.2794 29.6334 20.9654 29.2804 20.9077C25.2877 20.2515 23.4889 16.1609 23.4146 15.9871C23.4098 15.9757 23.4043 15.9643 23.3987 15.9533C23.1946 15.5401 23.1474 15.1987 23.2581 14.9386C23.4759 14.4268 24.3124 14.162 24.8658 13.9868C25.026 13.9365 25.177 13.8887 25.3028 13.8391C25.8477 13.6246 26.2371 13.3918 26.4939 13.1275C26.8008 12.8124 26.8605 12.5105 26.8568 12.3129C26.8474 11.8349 26.4809 11.4101 25.898 11.2021C25.7011 11.1209 25.4765 11.0781 25.2479 11.0781C25.0922 11.0781 24.8617 11.0994 24.6435 11.2009C24.1764 11.4189 23.758 11.538 23.3988 11.555C23.2077 11.5454 23.0738 11.5041 22.987 11.4647C22.9979 11.2782 23.01 11.0866 23.0224 10.8869L23.0276 10.8014C23.1556 8.78016 23.3146 6.26469 22.6468 4.77133C22.1891 3.74852 21.5746 2.86886 20.8198 2.15568C20.1869 1.55803 19.4515 1.0736 18.6339 0.715499C17.2109 0.0929971 15.8844 0 15.2205 0Z" fill="white"/>
</svg>
